,index,location
0,19499,lancashire
1,28851,somerset
2,36126,sussex
3,34670,london
4,21080,manchester
5,24325,birmingham_and_black_country
6,25088,shropshire
7,36154,isle_of_man
8,29184,wiltshire
9,28129,gloucestershire
10,21334,tees
11,29982,beds_bucks_and_herts
12,5071,york_and_north_yorkshire
13,7809,northamptonshire
14,33090,hampshire
15,8501,bristol
16,14872,oxford
17,23299,south_yorkshire
18,6833,stoke_and_staffordshire
19,3899,leeds_and_west_yorkshire
20,9162,devon
21,35359,surrey
22,6059,hereford_and_worcester
23,18615,jersey
24,18235,guernsey
25,5684,coventry_and_warwickshire
26,31015,norfolk
27,22559,humberside
28,7929,nottingham
29,30635,essex
30,21901,tyne_and_wear
31,26203,leicester
32,8672,cornwall
33,19194,cumbria
34,33931,kent
35,31877,berkshire
36,4173,lincolnshire
37,13528,dorset
38,25990,derbyshire
39,31455,suffolk
40,30215,cambridgeshire
41,1652,merseyside
